{
  "name": "jadwal_dokter",
  "plural": "jadwal-dokter",
  "base": "PersistedModel",
  "idInjection": true,
  "options": {
    "validateUpsert": true
  },
  "properties": {
    "dokterId": {
      "type": "string"
    },
    "hari": {
      "type": "string",
      "required": true
    },
    "jam": {
      "type": "string",
      "required": true
    }
  },
  "validations": [],
  "relations": {
    "Regis": {
      "type": "belongsTo",
      "model": "regis",
      "foreignKey": "jadwal-dokterId"
    },
    "dokter": {
      "type": "belongsTo",
      "model": "dokter",
      "foreignKey": "dokterId"
    }
  },
  "acls": [],
  "methods": {}
}
