{
  "name": "registrasi",
  "plural": "registrasi",
  "base": "PersistedModel",
  "idInjection": true,
  "options": {
    "validateUpsert": true
  },
  "properties": {
    "nama": {
      "type": "string",
      "required": true
    },
    "no_hp": {
      "type": "string",
      "required": true
    },
    "id_poly": {
      "type": "string",
      "required": true
    }
  },
  "validations": [],
  "relations": {},
  "acls": [],
  "methods": {}
}
